{ "Tag1" : [
    {
        "observationTS": "2018-12-29T23:59:00Z",
        "tagId": "Tag1",
        "value": 0.99761250636122423,
        "quality": null
    },
    {
        "observationTS": "2018-12-29T23:58:02Z",
        "tagId": "Tag1",
        "value": 0.99715890026061482,
        "quality": null
    },
    {
        "observationTS": "2018-12-29T23:57:01Z",
        "tagId": "Tag1",
        "value": 0.9966659280340282,
        "quality": null
    },
    {
        "observationTS": "2018-12-29T23:56:03Z",
        "tagId": "Tag1",
        "value": 0.996133609143168,
        "quality": null
    },
    {
        "observationTS": "2018-12-29T23:55:02Z",
        "tagId": "Tag1",
        "value": 0.99556196460307755,
        "quality": null
    },
    {
        "observationTS": "2018-12-29T23:54:00Z",
        "tagId": "Tag1",
        "value": 0.99495101698130006,
        "quality": null
    },
    {
        "observationTS": "2018-12-29T23:53:04Z",
        "tagId": "Tag1",
        "value": 0.99430079039700148,
        "quality": null
    },
    {
        "observationTS": "2018-12-29T23:52:00Z",
        "tagId": "Tag1",
        "value": 0.99361131052000762,
        "quality": null
    },
    {
        "observationTS": "2018-12-29T23:51:04Z",
        "tagId": "Tag1",
        "value": 0.992882604569809,
        "quality": null
    },
    {
        "observationTS": "2018-12-29T23:50:00Z",
        "tagId": "Tag1",
        "value": 0.9921147013144761,
        "quality": null
    },
    {
        "observationTS": "2018-12-29T23:49:00Z",
        "tagId": "Tag1",
        "value": 0.99130763106950059,
        "quality": null
    },
    {
        "observationTS": "2018-12-29T23:48:02Z",
        "tagId": "Tag1",
        "value": 0.99046142569664841,
        "quality": null
    },
    {
        "observationTS": "2018-12-29T23:47:04Z",
        "tagId": "Tag1",
        "value": 0.98957611860265171,
        "quality": null
    }
], 
"Tag2": [{"observationTS":"2018-12-29T23:59:03Z","tagId":"Tag2","value":false,"quality":null},{"observationTS":"2018-12-29T23:58:04Z","tagId":"Tag2","value":false,"quality":null},{"observationTS":"2018-12-29T23:57:04Z","tagId":"Tag2","value":false,"quality":null},{"observationTS":"2018-12-29T23:56:04Z","tagId":"Tag2","value":false,"quality":null},{"observationTS":"2018-12-29T23:55:02Z","tagId":"Tag2","value":true,"quality":null},{"observationTS":"2018-12-29T23:54:02Z","tagId":"Tag2","value":true,"quality":null},{"observationTS":"2018-12-29T23:53:01Z","tagId":"Tag2","value":true,"quality":null},{"observationTS":"2018-12-29T23:52:03Z","tagId":"Tag2","value":true,"quality":null},{"observationTS":"2018-12-29T23:51:02Z","tagId":"Tag2","value":true,"quality":null},{"observationTS":"2018-12-29T23:50:04Z","tagId":"Tag2","value":true,"quality":null},{"observationTS":"2018-12-29T23:49:01Z","tagId":"Tag2","value":false,"quality":null},{"observationTS":"2018-12-29T23:48:01Z","tagId":"Tag2","value":false,"quality":null},{"observationTS":"2018-12-29T23:47:01Z","tagId":"Tag2","value":false,"quality":null},{"observationTS":"2018-12-29T23:46:00Z","tagId":"Tag2","value":false,"quality":null},{"observationTS":"2018-12-29T23:45:03Z","tagId":"Tag2","value":true,"quality":null},{"observationTS":"2018-12-29T23:44:01Z","tagId":"Tag2","value":true,"quality":null},{"observationTS":"2018-12-29T23:43:00Z","tagId":"Tag2","value":true,"quality":null},{"observationTS":"2018-12-29T23:42:00Z","tagId":"Tag2","value":true,"quality":null},{"observationTS":"2018-12-29T23:41:03Z","tagId":"Tag2","value":true,"quality":null},{"observationTS":"2018-12-29T23:40:03Z","tagId":"Tag2","value":true,"quality":null},{"observationTS":"2018-12-29T23:39:03Z","tagId":"Tag2","value":false,"quality":null},{"observationTS":"2018-12-29T23:38:03Z","tagId":"Tag2","value":false,"quality":null},{"observationTS":"2018-12-29T23:37:04Z","tagId":"Tag2","value":false,"quality":null},{"observationTS":"2018-12-29T23:36:02Z","tagId":"Tag2","value":false,"quality":null},{"observationTS":"2018-12-29T23:35:03Z","tagId":"Tag2","value":true,"quality":null},{"observationTS":"2018-12-29T23:34:01Z","tagId":"Tag2","value":true,"quality":null},{"observationTS":"2018-12-29T23:33:00Z","tagId":"Tag2","value":true,"quality":null},{"observationTS":"2018-12-29T23:32:02Z","tagId":"Tag2","value":true,"quality":null},{"observationTS":"2018-12-29T23:31:00Z","tagId":"Tag2","value":true,"quality":null},{"observationTS":"2018-12-29T23:30:00Z","tagId":"Tag2","value":true,"quality":null},{"observationTS":"2018-12-29T23:29:03Z","tagId":"Tag2","value":false,"quality":null},{"observationTS":"2018-12-29T23:28:04Z","tagId":"Tag2","value":false,"quality":null},{"observationTS":"2018-12-29T23:27:02Z","tagId":"Tag2","value":false,"quality":null},{"observationTS":"2018-12-29T23:26:02Z","tagId":"Tag2","value":false,"quality":null},{"observationTS":"2018-12-29T23:25:01Z","tagId":"Tag2","value":true,"quality":null},{"observationTS":"2018-12-29T23:24:03Z","tagId":"Tag2","value":true,"quality":null},{"observationTS":"2018-12-29T23:23:00Z","tagId":"Tag2","value":true,"quality":null},{"observationTS":"2018-12-29T23:22:00Z","tagId":"Tag2","value":true,"quality":null},{"observationTS":"2018-12-29T23:21:04Z","tagId":"Tag2","value":true,"quality":null},{"observationTS":"2018-12-29T23:20:04Z","tagId":"Tag2","value":true,"quality":null},{"observationTS":"2018-12-29T23:19:03Z","tagId":"Tag2","value":false,"quality":null},{"observationTS":"2018-12-29T23:18:01Z","tagId":"Tag2","value":false,"quality":null},{"observationTS":"2018-12-29T23:17:04Z","tagId":"Tag2","value":false,"quality":null},{"observationTS":"2018-12-29T23:16:01Z","tagId":"Tag2","value":false,"quality":null},{"observationTS":"2018-12-29T23:15:04Z","tagId":"Tag2","value":true,"quality":null},{"observationTS":"2018-12-29T23:14:04Z","tagId":"Tag2","value":true,"quality":null},{"observationTS":"2018-12-29T23:13:01Z","tagId":"Tag2","value":true,"quality":null},{"observationTS":"2018-12-29T23:12:01Z","tagId":"Tag2","value":true,"quality":null},{"observationTS":"2018-12-29T23:11:03Z","tagId":"Tag2","value":true,"quality":null},{"observationTS":"2018-12-29T23:10:04Z","tagId":"Tag2","value":true,"quality":null},{"observationTS":"2018-12-29T23:09:03Z","tagId":"Tag2","value":false,"quality":null},{"observationTS":"2018-12-29T23:08:00Z","tagId":"Tag2","value":false,"quality":null},{"observationTS":"2018-12-29T23:07:00Z","tagId":"Tag2","value":false,"quality":null},{"observationTS":"2018-12-29T23:06:00Z","tagId":"Tag2","value":false,"quality":null},{"observationTS":"2018-12-29T23:05:00Z","tagId":"Tag2","value":true,"quality":null},{"observationTS":"2018-12-29T23:04:04Z","tagId":"Tag2","value":true,"quality":null},{"observationTS":"2018-12-29T23:03:02Z","tagId":"Tag2","value":true,"quality":null},{"observationTS":"2018-12-29T23:02:04Z","tagId":"Tag2","value":true,"quality":null},{"observationTS":"2018-12-29T23:01:04Z","tagId":"Tag2","value":true,"quality":null},{"observationTS":"2018-12-29T23:00:01Z","tagId":"Tag2","value":true,"quality":null},{"observationTS":"2018-12-29T22:59:02Z","tagId":"Tag2","value":false,"quality":null},{"observationTS":"2018-12-29T22:58:00Z","tagId":"Tag2","value":false,"quality":null},{"observationTS":"2018-12-29T22:57:04Z","tagId":"Tag2","value":false,"quality":null},{"observationTS":"2018-12-29T22:56:01Z","tagId":"Tag2","value":false,"quality":null},{"observationTS":"2018-12-29T22:55:00Z","tagId":"Tag2","value":true,"quality":null},{"observationTS":"2018-12-29T22:54:01Z","tagId":"Tag2","value":true,"quality":null},{"observationTS":"2018-12-29T22:53:00Z","tagId":"Tag2","value":true,"quality":null},{"observationTS":"2018-12-29T22:52:03Z","tagId":"Tag2","value":true,"quality":null},{"observationTS":"2018-12-29T22:51:02Z","tagId":"Tag2","value":true,"quality":null},{"observationTS":"2018-12-29T22:50:01Z","tagId":"Tag2","value":true,"quality":null},{"observationTS":"2018-12-29T22:49:00Z","tagId":"Tag2","value":false,"quality":null},{"observationTS":"2018-12-29T22:48:04Z","tagId":"Tag2","value":false,"quality":null},{"observationTS":"2018-12-29T22:47:00Z","tagId":"Tag2","value":false,"quality":null},{"observationTS":"2018-12-29T22:46:03Z","tagId":"Tag2","value":false,"quality":null},{"observationTS":"2018-12-29T22:45:04Z","tagId":"Tag2","value":true,"quality":null},{"observationTS":"2018-12-29T22:44:04Z","tagId":"Tag2","value":true,"quality":null},{"observationTS":"2018-12-29T22:43:03Z","tagId":"Tag2","value":true,"quality":null},{"observationTS":"2018-12-29T22:42:01Z","tagId":"Tag2","value":true,"quality":null},{"observationTS":"2018-12-29T22:41:02Z","tagId":"Tag2","value":true,"quality":null},{"observationTS":"2018-12-29T22:40:03Z","tagId":"Tag2","value":true,"quality":null},{"observationTS":"2018-12-29T22:39:03Z","tagId":"Tag2","value":false,"quality":null},{"observationTS":"2018-12-29T22:38:02Z","tagId":"Tag2","value":false,"quality":null},{"observationTS":"2018-12-29T22:37:03Z","tagId":"Tag2","value":false,"quality":null},{"observationTS":"2018-12-29T22:36:00Z","tagId":"Tag2","value":false,"quality":null},{"observationTS":"2018-12-29T22:35:02Z","tagId":"Tag2","value":true,"quality":null},{"observationTS":"2018-12-29T22:34:03Z","tagId":"Tag2","value":true,"quality":null},{"observationTS":"2018-12-29T22:33:00Z","tagId":"Tag2","value":true,"quality":null},{"observationTS":"2018-12-29T22:32:03Z","tagId":"Tag2","value":true,"quality":null},{"observationTS":"2018-12-29T22:31:01Z","tagId":"Tag2","value":true,"quality":null},{"observationTS":"2018-12-29T22:30:03Z","tagId":"Tag2","value":true,"quality":null},{"observationTS":"2018-12-29T22:29:04Z","tagId":"Tag2","value":false,"quality":null},{"observationTS":"2018-12-29T22:28:01Z","tagId":"Tag2","value":false,"quality":null},{"observationTS":"2018-12-29T22:27:04Z","tagId":"Tag2","value":false,"quality":null},{"observationTS":"2018-12-29T22:26:00Z","tagId":"Tag2","value":false,"quality":null},{"observationTS":"2018-12-29T22:25:03Z","tagId":"Tag2","value":true,"quality":null},{"observationTS":"2018-12-29T22:24:02Z","tagId":"Tag2","value":true,"quality":null},{"observationTS":"2018-12-29T22:23:00Z","tagId":"Tag2","value":true,"quality":null},{"observationTS":"2018-12-29T22:22:03Z","tagId":"Tag2","value":true,"quality":null},{"observationTS":"2018-12-29T22:21:03Z","tagId":"Tag2","value":true,"quality":null},{"observationTS":"2018-12-29T22:20:01Z","tagId":"Tag2","value":true,"quality":null},{"observationTS":"2018-12-29T22:19:02Z","tagId":"Tag2","value":false,"quality":null},{"observationTS":"2018-12-29T22:18:04Z","tagId":"Tag2","value":false,"quality":null},{"observationTS":"2018-12-29T22:17:04Z","tagId":"Tag2","value":false,"quality":null},{"observationTS":"2018-12-29T22:16:01Z","tagId":"Tag2","value":false,"quality":null},{"observationTS":"2018-12-29T22:15:04Z","tagId":"Tag2","value":true,"quality":null},{"observationTS":"2018-12-29T22:14:01Z","tagId":"Tag2","value":true,"quality":null},{"observationTS":"2018-12-29T22:13:04Z","tagId":"Tag2","value":true,"quality":null},{"observationTS":"2018-12-29T22:12:00Z","tagId":"Tag2","value":true,"quality":null},{"observationTS":"2018-12-29T22:11:03Z","tagId":"Tag2","value":true,"quality":null},{"observationTS":"2018-12-29T22:10:01Z","tagId":"Tag2","value":true,"quality":null},{"observationTS":"2018-12-29T22:09:03Z","tagId":"Tag2","value":false,"quality":null},{"observationTS":"2018-12-29T22:08:02Z","tagId":"Tag2","value":false,"quality":null},{"observationTS":"2018-12-29T22:07:01Z","tagId":"Tag2","value":false,"quality":null},{"observationTS":"2018-12-29T22:06:04Z","tagId":"Tag2","value":false,"quality":null},{"observationTS":"2018-12-29T22:05:02Z","tagId":"Tag2","value":true,"quality":null},{"observationTS":"2018-12-29T22:04:00Z","tagId":"Tag2","value":true,"quality":null},{"observationTS":"2018-12-29T22:03:02Z","tagId":"Tag2","value":true,"quality":null},{"observationTS":"2018-12-29T22:02:04Z","tagId":"Tag2","value":true,"quality":null},{"observationTS":"2018-12-29T22:01:00Z","tagId":"Tag2","value":true,"quality":null},{"observationTS":"2018-12-29T22:00:03Z","tagId":"Tag2","value":true,"quality":null},{"observationTS":"2018-12-29T21:59:02Z","tagId":"Tag2","value":false,"quality":null},{"observationTS":"2018-12-29T21:58:02Z","tagId":"Tag2","value":false,"quality":null},{"observationTS":"2018-12-29T21:57:02Z","tagId":"Tag2","value":false,"quality":null},{"observationTS":"2018-12-29T21:56:02Z","tagId":"Tag2","value":false,"quality":null},{"observationTS":"2018-12-29T21:55:03Z","tagId":"Tag2","value":true,"quality":null},{"observationTS":"2018-12-29T21:54:00Z","tagId":"Tag2","value":true,"quality":null},{"observationTS":"2018-12-29T21:53:00Z","tagId":"Tag2","value":true,"quality":null},{"observationTS":"2018-12-29T21:52:00Z","tagId":"Tag2","value":true,"quality":null},{"observationTS":"2018-12-29T21:51:04Z","tagId":"Tag2","value":true,"quality":null},{"observationTS":"2018-12-29T21:50:02Z","tagId":"Tag2","value":true,"quality":null},{"observationTS":"2018-12-29T21:49:01Z","tagId":"Tag2","value":false,"quality":null},{"observationTS":"2018-12-29T21:48:02Z","tagId":"Tag2","value":false,"quality":null},{"observationTS":"2018-12-29T21:47:03Z","tagId":"Tag2","value":false,"quality":null},{"observationTS":"2018-12-29T21:46:03Z","tagId":"Tag2","value":false,"quality":null},{"observationTS":"2018-12-29T21:45:02Z","tagId":"Tag2","value":true,"quality":null},{"observationTS":"2018-12-29T21:44:00Z","tagId":"Tag2","value":true,"quality":null},{"observationTS":"2018-12-29T21:43:03Z","tagId":"Tag2","value":true,"quality":null},{"observationTS":"2018-12-29T21:42:00Z","tagId":"Tag2","value":true,"quality":null},{"observationTS":"2018-12-29T21:41:04Z","tagId":"Tag2","value":true,"quality":null},{"observationTS":"2018-12-29T21:40:03Z","tagId":"Tag2","value":true,"quality":null},{"observationTS":"2018-12-29T21:39:02Z","tagId":"Tag2","value":false,"quality":null},{"observationTS":"2018-12-29T21:38:03Z","tagId":"Tag2","value":false,"quality":null},{"observationTS":"2018-12-29T21:37:01Z","tagId":"Tag2","value":false,"quality":null},{"observationTS":"2018-12-29T21:36:04Z","tagId":"Tag2","value":false,"quality":null},{"observationTS":"2018-12-29T21:35:00Z","tagId":"Tag2","value":true,"quality":null},{"observationTS":"2018-12-29T21:34:03Z","tagId":"Tag2","value":true,"quality":null},{"observationTS":"2018-12-29T21:33:02Z","tagId":"Tag2","value":true,"quality":null},{"observationTS":"2018-12-29T21:32:00Z","tagId":"Tag2","value":true,"quality":null},{"observationTS":"2018-12-29T21:31:00Z","tagId":"Tag2","value":true,"quality":null},{"observationTS":"2018-12-29T21:30:02Z","tagId":"Tag2","value":true,"quality":null},{"observationTS":"2018-12-29T21:29:00Z","tagId":"Tag2","value":false,"quality":null},{"observationTS":"2018-12-29T21:28:01Z","tagId":"Tag2","value":false,"quality":null},{"observationTS":"2018-12-29T21:27:00Z","tagId":"Tag2","value":false,"quality":null},{"observationTS":"2018-12-29T21:26:02Z","tagId":"Tag2","value":false,"quality":null},{"observationTS":"2018-12-29T21:25:00Z","tagId":"Tag2","value":true,"quality":null},{"observationTS":"2018-12-29T21:24:04Z","tagId":"Tag2","value":true,"quality":null},{"observationTS":"2018-12-29T21:23:00Z","tagId":"Tag2","value":true,"quality":null},{"observationTS":"2018-12-29T21:22:03Z","tagId":"Tag2","value":true,"quality":null},{"observationTS":"2018-12-29T21:21:02Z","tagId":"Tag2","value":true,"quality":null},{"observationTS":"2018-12-29T21:20:04Z","tagId":"Tag2","value":true,"quality":null},{"observationTS":"2018-12-29T21:19:04Z","tagId":"Tag2","value":false,"quality":null},{"observationTS":"2018-12-29T21:18:02Z","tagId":"Tag2","value":false,"quality":null},{"observationTS":"2018-12-29T21:17:03Z","tagId":"Tag2","value":false,"quality":null},{"observationTS":"2018-12-29T21:16:04Z","tagId":"Tag2","value":false,"quality":null},{"observationTS":"2018-12-29T21:15:00Z","tagId":"Tag2","value":true,"quality":null},{"observationTS":"2018-12-29T21:14:03Z","tagId":"Tag2","value":true,"quality":null},{"observationTS":"2018-12-29T21:13:00Z","tagId":"Tag2","value":true,"quality":null},{"observationTS":"2018-12-29T21:12:03Z","tagId":"Tag2","value":true,"quality":null},{"observationTS":"2018-12-29T21:11:00Z","tagId":"Tag2","value":true,"quality":null},{"observationTS":"2018-12-29T21:10:02Z","tagId":"Tag2","value":true,"quality":null},{"observationTS":"2018-12-29T21:09:03Z","tagId":"Tag2","value":false,"quality":null},{"observationTS":"2018-12-29T21:08:03Z","tagId":"Tag2","value":false,"quality":null},{"observationTS":"2018-12-29T21:07:01Z","tagId":"Tag2","value":false,"quality":null},{"observationTS":"2018-12-29T21:06:01Z","tagId":"Tag2","value":false,"quality":null},{"observationTS":"2018-12-29T21:05:01Z","tagId":"Tag2","value":true,"quality":null},{"observationTS":"2018-12-29T21:04:02Z","tagId":"Tag2","value":true,"quality":null},{"observationTS":"2018-12-29T21:03:02Z","tagId":"Tag2","value":true,"quality":null},{"observationTS":"2018-12-29T21:02:03Z","tagId":"Tag2","value":true,"quality":null},{"observationTS":"2018-12-29T21:01:00Z","tagId":"Tag2","value":true,"quality":null},{"observationTS":"2018-12-29T21:00:01Z","tagId":"Tag2","value":true,"quality":null},{"observationTS":"2018-12-29T20:59:00Z","tagId":"Tag2","value":false,"quality":null},{"observationTS":"2018-12-29T20:58:04Z","tagId":"Tag2","value":false,"quality":null},{"observationTS":"2018-12-29T20:57:02Z","tagId":"Tag2","value":false,"quality":null},{"observationTS":"2018-12-29T20:56:03Z","tagId":"Tag2","value":false,"quality":null},{"observationTS":"2018-12-29T20:55:02Z","tagId":"Tag2","value":true,"quality":null},{"observationTS":"2018-12-29T20:54:02Z","tagId":"Tag2","value":true,"quality":null},{"observationTS":"2018-12-29T20:53:01Z","tagId":"Tag2","value":true,"quality":null},{"observationTS":"2018-12-29T20:52:04Z","tagId":"Tag2","value":true,"quality":null},{"observationTS":"2018-12-29T20:51:02Z","tagId":"Tag2","value":true,"quality":null},{"observationTS":"2018-12-29T20:50:02Z","tagId":"Tag2","value":true,"quality":null},{"observationTS":"2018-12-29T20:49:02Z","tagId":"Tag2","value":false,"quality":null},{"observationTS":"2018-12-29T20:48:01Z","tagId":"Tag2","value":false,"quality":null},{"observationTS":"2018-12-29T20:47:03Z","tagId":"Tag2","value":false,"quality":null},{"observationTS":"2018-12-29T20:46:01Z","tagId":"Tag2","value":false,"quality":null},{"observationTS":"2018-12-29T20:45:04Z","tagId":"Tag2","value":true,"quality":null},{"observationTS":"2018-12-29T20:44:03Z","tagId":"Tag2","value":true,"quality":null},{"observationTS":"2018-12-29T20:43:00Z","tagId":"Tag2","value":true,"quality":null},{"observationTS":"2018-12-29T20:42:03Z","tagId":"Tag2","value":true,"quality":null},{"observationTS":"2018-12-29T20:41:02Z","tagId":"Tag2","value":true,"quality":null},{"observationTS":"2018-12-29T20:40:00Z","tagId":"Tag2","value":true,"quality":null},{"observationTS":"2018-12-29T20:39:04Z","tagId":"Tag2","value":false,"quality":null},{"observationTS":"2018-12-29T20:38:02Z","tagId":"Tag2","value":false,"quality":null},{"observationTS":"2018-12-29T20:37:00Z","tagId":"Tag2","value":false,"quality":null},{"observationTS":"2018-12-29T20:36:02Z","tagId":"Tag2","value":false,"quality":null},{"observationTS":"2018-12-29T20:35:01Z","tagId":"Tag2","value":true,"quality":null},{"observationTS":"2018-12-29T20:34:03Z","tagId":"Tag2","value":true,"quality":null},{"observationTS":"2018-12-29T20:33:04Z","tagId":"Tag2","value":true,"quality":null},{"observationTS":"2018-12-29T20:32:01Z","tagId":"Tag2","value":true,"quality":null},{"observationTS":"2018-12-29T20:31:01Z","tagId":"Tag2","value":true,"quality":null},{"observationTS":"2018-12-29T20:30:02Z","tagId":"Tag2","value":true,"quality":null},{"observationTS":"2018-12-29T20:29:02Z","tagId":"Tag2","value":false,"quality":null},{"observationTS":"2018-12-29T20:28:02Z","tagId":"Tag2","value":false,"quality":null},{"observationTS":"2018-12-29T20:27:04Z","tagId":"Tag2","value":false,"quality":null},{"observationTS":"2018-12-29T20:26:01Z","tagId":"Tag2","value":false,"quality":null},{"observationTS":"2018-12-29T20:25:01Z","tagId":"Tag2","value":true,"quality":null},{"observationTS":"2018-12-29T20:24:03Z","tagId":"Tag2","value":true,"quality":null},{"observationTS":"2018-12-29T20:23:01Z","tagId":"Tag2","value":true,"quality":null},{"observationTS":"2018-12-29T20:22:04Z","tagId":"Tag2","value":true,"quality":null},{"observationTS":"2018-12-29T20:21:03Z","tagId":"Tag2","value":true,"quality":null},{"observationTS":"2018-12-29T20:20:03Z","tagId":"Tag2","value":true,"quality":null},{"observationTS":"2018-12-29T20:19:04Z","tagId":"Tag2","value":false,"quality":null},{"observationTS":"2018-12-29T20:18:04Z","tagId":"Tag2","value":false,"quality":null},{"observationTS":"2018-12-29T20:17:01Z","tagId":"Tag2","value":false,"quality":null},{"observationTS":"2018-12-29T20:16:00Z","tagId":"Tag2","value":false,"quality":null},{"observationTS":"2018-12-29T20:15:00Z","tagId":"Tag2","value":true,"quality":null},{"observationTS":"2018-12-29T20:14:04Z","tagId":"Tag2","value":true,"quality":null},{"observationTS":"2018-12-29T20:13:01Z","tagId":"Tag2","value":true,"quality":null},{"observationTS":"2018-12-29T20:12:00Z","tagId":"Tag2","value":true,"quality":null},{"observationTS":"2018-12-29T20:11:02Z","tagId":"Tag2","value":true,"quality":null},{"observationTS":"2018-12-29T20:10:02Z","tagId":"Tag2","value":true,"quality":null},{"observationTS":"2018-12-29T20:09:00Z","tagId":"Tag2","value":false,"quality":null},{"observationTS":"2018-12-29T20:08:00Z","tagId":"Tag2","value":false,"quality":null},{"observationTS":"2018-12-29T20:07:00Z","tagId":"Tag2","value":false,"quality":null},{"observationTS":"2018-12-29T20:06:04Z","tagId":"Tag2","value":false,"quality":null},{"observationTS":"2018-12-29T20:05:02Z","tagId":"Tag2","value":true,"quality":null},{"observationTS":"2018-12-29T20:04:01Z","tagId":"Tag2","value":true,"quality":null},{"observationTS":"2018-12-29T20:03:03Z","tagId":"Tag2","value":true,"quality":null},{"observationTS":"2018-12-29T20:02:03Z","tagId":"Tag2","value":true,"quality":null},{"observationTS":"2018-12-29T20:01:03Z","tagId":"Tag2","value":true,"quality":null},{"observationTS":"2018-12-29T20:00:01Z","tagId":"Tag2","value":true,"quality":null},{"observationTS":"2018-12-29T19:59:00Z","tagId":"Tag2","value":false,"quality":null},{"observationTS":"2018-12-29T19:58:00Z","tagId":"Tag2","value":false,"quality":null},{"observationTS":"2018-12-29T19:57:03Z","tagId":"Tag2","value":false,"quality":null},{"observationTS":"2018-12-29T19:56:04Z","tagId":"Tag2","value":false,"quality":null},{"observationTS":"2018-12-29T19:55:03Z","tagId":"Tag2","value":true,"quality":null},{"observationTS":"2018-12-29T19:54:03Z","tagId":"Tag2","value":true,"quality":null},{"observationTS":"2018-12-29T19:53:00Z","tagId":"Tag2","value":true,"quality":null},{"observationTS":"2018-12-29T19:52:00Z","tagId":"Tag2","value":true,"quality":null},{"observationTS":"2018-12-29T19:51:02Z","tagId":"Tag2","value":true,"quality":null},{"observationTS":"2018-12-29T19:50:01Z","tagId":"Tag2","value":true,"quality":null},{"observationTS":"2018-12-29T19:49:01Z","tagId":"Tag2","value":false,"quality":null},{"observationTS":"2018-12-29T19:48:01Z","tagId":"Tag2","value":false,"quality":null},{"observationTS":"2018-12-29T19:47:04Z","tagId":"Tag2","value":false,"quality":null},{"observationTS":"2018-12-29T19:46:02Z","tagId":"Tag2","value":false,"quality":null},{"observationTS":"2018-12-29T19:45:00Z","tagId":"Tag2","value":true,"quality":null},{"observationTS":"2018-12-29T19:44:01Z","tagId":"Tag2","value":true,"quality":null},{"observationTS":"2018-12-29T19:43:04Z","tagId":"Tag2","value":true,"quality":null},{"observationTS":"2018-12-29T19:42:03Z","tagId":"Tag2","value":true,"quality":null},{"observationTS":"2018-12-29T19:41:01Z","tagId":"Tag2","value":true,"quality":null},{"observationTS":"2018-12-29T19:40:04Z","tagId":"Tag2","value":true,"quality":null},{"observationTS":"2018-12-29T19:39:04Z","tagId":"Tag2","value":false,"quality":null},{"observationTS":"2018-12-29T19:38:04Z","tagId":"Tag2","value":false,"quality":null},{"observationTS":"2018-12-29T19:37:02Z","tagId":"Tag2","value":false,"quality":null},{"observationTS":"2018-12-29T19:36:00Z","tagId":"Tag2","value":false,"quality":null},{"observationTS":"2018-12-29T19:35:02Z","tagId":"Tag2","value":true,"quality":null},{"observationTS":"2018-12-29T19:34:01Z","tagId":"Tag2","value":true,"quality":null},{"observationTS":"2018-12-29T19:33:01Z","tagId":"Tag2","value":true,"quality":null},{"observationTS":"2018-12-29T19:32:00Z","tagId":"Tag2","value":true,"quality":null},{"observationTS":"2018-12-29T19:31:01Z","tagId":"Tag2","value":true,"quality":null},{"observationTS":"2018-12-29T19:30:04Z","tagId":"Tag2","value":true,"quality":null},{"observationTS":"2018-12-29T19:29:00Z","tagId":"Tag2","value":false,"quality":null},{"observationTS":"2018-12-29T19:28:02Z","tagId":"Tag2","value":false,"quality":null},{"observationTS":"2018-12-29T19:27:01Z","tagId":"Tag2","value":false,"quality":null},{"observationTS":"2018-12-29T19:26:02Z","tagId":"Tag2","value":false,"quality":null},{"observationTS":"2018-12-29T19:25:01Z","tagId":"Tag2","value":true,"quality":null},{"observationTS":"2018-12-29T19:24:00Z","tagId":"Tag2","value":true,"quality":null},{"observationTS":"2018-12-29T19:23:01Z","tagId":"Tag2","value":true,"quality":null},{"observationTS":"2018-12-29T19:22:01Z","tagId":"Tag2","value":true,"quality":null},{"observationTS":"2018-12-29T19:21:04Z","tagId":"Tag2","value":true,"quality":null},{"observationTS":"2018-12-29T19:20:02Z","tagId":"Tag2","value":true,"quality":null},{"observationTS":"2018-12-29T19:19:03Z","tagId":"Tag2","value":false,"quality":null},{"observationTS":"2018-12-29T19:18:00Z","tagId":"Tag2","value":false,"quality":null},{"observationTS":"2018-12-29T19:17:00Z","tagId":"Tag2","value":false,"quality":null},{"observationTS":"2018-12-29T19:16:00Z","tagId":"Tag2","value":false,"quality":null},{"observationTS":"2018-12-29T19:15:02Z","tagId":"Tag2","value":true,"quality":null},{"observationTS":"2018-12-29T19:14:03Z","tagId":"Tag2","value":true,"quality":null},{"observationTS":"2018-12-29T19:13:01Z","tagId":"Tag2","value":true,"quality":null},{"observationTS":"2018-12-29T19:12:01Z","tagId":"Tag2","value":true,"quality":null},{"observationTS":"2018-12-29T19:11:00Z","tagId":"Tag2","value":true,"quality":null},{"observationTS":"2018-12-29T19:10:04Z","tagId":"Tag2","value":true,"quality":null},{"observationTS":"2018-12-29T19:09:01Z","tagId":"Tag2","value":false,"quality":null},{"observationTS":"2018-12-29T19:08:04Z","tagId":"Tag2","value":false,"quality":null},{"observationTS":"2018-12-29T19:07:01Z","tagId":"Tag2","value":false,"quality":null},{"observationTS":"2018-12-29T19:06:04Z","tagId":"Tag2","value":false,"quality":null},{"observationTS":"2018-12-29T19:05:03Z","tagId":"Tag2","value":true,"quality":null},{"observationTS":"2018-12-29T19:04:01Z","tagId":"Tag2","value":true,"quality":null},{"observationTS":"2018-12-29T19:03:01Z","tagId":"Tag2","value":true,"quality":null}],
"Tag3": [],
"Tag4": []
}
